-- Merging decision tree log ---
manifest
ADDED from C:\Users\linta\Desktop\LearningApp\app\src\main\AndroidManifest.xml:2:1-26:12
	package
		ADDED from C:\Users\linta\Desktop\LearningApp\app\src\main\AndroidManifest.xml:3:5-78
		INJECTED from C:\Users\linta\Desktop\LearningApp\app\src\main\AndroidManifest.xml
		INJECTED from C:\Users\linta\Desktop\LearningApp\app\src\main\AndroidManifest.xml
	android:versionName
		INJECTED from C:\Users\linta\Desktop\LearningApp\app\src\main\AndroidManifest.xml
		INJECTED from C:\Users\linta\Desktop\LearningApp\app\src\main\AndroidManifest.xml
	xmlns:android
		ADDED from C:\Users\linta\Desktop\LearningApp\app\src\main\AndroidManifest.xml:2:11-69
	android:versionCode
		INJECTED from C:\Users\linta\Desktop\LearningApp\app\src\main\AndroidManifest.xml
		INJECTED from C:\Users\linta\Desktop\LearningApp\app\src\main\AndroidManifest.xml
uses-permission#android.permission.INTERNET
ADDED from C:\Users\linta\Desktop\LearningApp\app\src\main\AndroidManifest.xml:5:5-67
	android:name
		ADDED from C:\Users\linta\Desktop\LearningApp\app\src\main\AndroidManifest.xml:5:22-64
application
ADDED from C:\Users\linta\Desktop\LearningApp\app\src\main\AndroidManifest.xml:7:5-24:19
MERGED from [com.android.support:appcompat-v7:25.3.1] C:\Users\linta\.android\build-cache\5ff80e5742539bd11556df7b3326b6be133d8723\output\AndroidManifest.xml:29:5-20
MERGED from [com.android.support:support-v4:25.3.1] C:\Users\linta\.android\build-cache\f4a54445904694afa9fb5a3f2103a1b836cfb5d8\output\AndroidManifest.xml:29:5-20
MERGED from [com.android.support:support-fragment:25.3.1] C:\Users\linta\.android\build-cache\176c331ad7ad8349565692d5641f27fff2f593cf\output\AndroidManifest.xml:29:5-20
MERGED from [com.android.support:support-media-compat:25.3.1] C:\Users\linta\.android\build-cache\497ab39c52d7b3fadf439746b7fe4c89da1eca68\output\AndroidManifest.xml:29:5-20
MERGED from [com.android.support:support-core-ui:25.3.1] C:\Users\linta\.android\build-cache\df41c945af6b841322a91f7ba0bd205f0ea9aea6\output\AndroidManifest.xml:29:5-20
MERGED from [com.android.support:support-core-utils:25.3.1] C:\Users\linta\.android\build-cache\7411c689a39a940a66bbe48ddf0c7f9e4d4115ea\output\AndroidManifest.xml:29:5-20
MERGED from [com.android.support:animated-vector-drawable:25.3.1] C:\Users\linta\.android\build-cache\1ecafc8bf06df1e73c3856886038219895c1ad3e\output\AndroidManifest.xml:26:5-20
MERGED from [com.android.support:support-vector-drawable:25.3.1] C:\Users\linta\.android\build-cache\827d5572e86f11b4edcded3da09563d5709ab7f2\output\AndroidManifest.xml:26:5-20
MERGED from [com.android.support:support-compat:25.3.1] C:\Users\linta\.android\build-cache\c06005385f8e0629542623c64777c0c995dc7dc3\output\AndroidManifest.xml:29:5-20
MERGED from [com.android.support.constraint:constraint-layout:1.0.2] C:\Users\linta\.android\build-cache\68c5f2dc93d35d6c5284015b5f48d09cb310d42d\output\AndroidManifest.xml:9:5-20
	android:label
		ADDED from C:\Users\linta\Desktop\LearningApp\app\src\main\AndroidManifest.xml:10:9-41
	android:supportsRtl
		ADDED from C:\Users\linta\Desktop\LearningApp\app\src\main\AndroidManifest.xml:12:9-35
	android:roundIcon
		ADDED from C:\Users\linta\Desktop\LearningApp\app\src\main\AndroidManifest.xml:11:9-54
	android:allowBackup
		ADDED from C:\Users\linta\Desktop\LearningApp\app\src\main\AndroidManifest.xml:8:9-35
	android:icon
		ADDED from C:\Users\linta\Desktop\LearningApp\app\src\main\AndroidManifest.xml:9:9-43
	android:theme
		ADDED from C:\Users\linta\Desktop\LearningApp\app\src\main\AndroidManifest.xml:13:9-40
activity#rukha_shahid.bcs143177.linta_amin.bcs153999.android.learningapp.Login
ADDED from C:\Users\linta\Desktop\LearningApp\app\src\main\AndroidManifest.xml:14:9-20:20
	android:name
		ADDED from C:\Users\linta\Desktop\LearningApp\app\src\main\AndroidManifest.xml:14:19-40
intent-filter#android.intent.action.MAIN+android.intent.category.LAUNCHER
ADDED from C:\Users\linta\Desktop\LearningApp\app\src\main\AndroidManifest.xml:15:13-19:29
action#android.intent.action.MAIN
ADDED from C:\Users\linta\Desktop\LearningApp\app\src\main\AndroidManifest.xml:16:17-69
	android:name
		ADDED from C:\Users\linta\Desktop\LearningApp\app\src\main\AndroidManifest.xml:16:25-66
category#android.intent.category.LAUNCHER
ADDED from C:\Users\linta\Desktop\LearningApp\app\src\main\AndroidManifest.xml:18:17-77
	android:name
		ADDED from C:\Users\linta\Desktop\LearningApp\app\src\main\AndroidManifest.xml:18:27-74
activity#rukha_shahid.bcs143177.linta_amin.bcs153999.android.learningapp.MainActivity
ADDED from C:\Users\linta\Desktop\LearningApp\app\src\main\AndroidManifest.xml:21:9-50
	android:name
		ADDED from C:\Users\linta\Desktop\LearningApp\app\src\main\AndroidManifest.xml:21:19-47
activity#rukha_shahid.bcs143177.linta_amin.bcs153999.android.learningapp.Main2Activity
ADDED from C:\Users\linta\Desktop\LearningApp\app\src\main\AndroidManifest.xml:22:9-51
	android:name
		ADDED from C:\Users\linta\Desktop\LearningApp\app\src\main\AndroidManifest.xml:22:19-48
activity#rukha_shahid.bcs143177.linta_amin.bcs153999.android.learningapp.Registeration
ADDED from C:\Users\linta\Desktop\LearningApp\app\src\main\AndroidManifest.xml:23:9-60
	android:name
		ADDED from C:\Users\linta\Desktop\LearningApp\app\src\main\AndroidManifest.xml:23:19-48
uses-sdk
INJECTED from C:\Users\linta\Desktop\LearningApp\app\src\main\AndroidManifest.xml reason: use-sdk injection requested
MERGED from [com.android.support:appcompat-v7:25.3.1] C:\Users\linta\.android\build-cache\5ff80e5742539bd11556df7b3326b6be133d8723\output\AndroidManifest.xml:21:5-23:78
MERGED from [com.android.support:support-v4:25.3.1] C:\Users\linta\.android\build-cache\f4a54445904694afa9fb5a3f2103a1b836cfb5d8\output\AndroidManifest.xml:21:5-23:54
MERGED from [com.android.support:support-fragment:25.3.1] C:\Users\linta\.android\build-cache\176c331ad7ad8349565692d5641f27fff2f593cf\output\AndroidManifest.xml:21:5-23:60
MERGED from [com.android.support:support-media-compat:25.3.1] C:\Users\linta\.android\build-cache\497ab39c52d7b3fadf439746b7fe4c89da1eca68\output\AndroidManifest.xml:21:5-23:63
MERGED from [com.android.support:support-core-ui:25.3.1] C:\Users\linta\.android\build-cache\df41c945af6b841322a91f7ba0bd205f0ea9aea6\output\AndroidManifest.xml:21:5-23:58
MERGED from [com.android.support:support-core-utils:25.3.1] C:\Users\linta\.android\build-cache\7411c689a39a940a66bbe48ddf0c7f9e4d4115ea\output\AndroidManifest.xml:21:5-23:61
MERGED from [com.android.support:animated-vector-drawable:25.3.1] C:\Users\linta\.android\build-cache\1ecafc8bf06df1e73c3856886038219895c1ad3e\output\AndroidManifest.xml:20:5-44
MERGED from [com.android.support:support-vector-drawable:25.3.1] C:\Users\linta\.android\build-cache\827d5572e86f11b4edcded3da09563d5709ab7f2\output\AndroidManifest.xml:20:5-43
MERGED from [com.android.support:support-compat:25.3.1] C:\Users\linta\.android\build-cache\c06005385f8e0629542623c64777c0c995dc7dc3\output\AndroidManifest.xml:21:5-23:58
MERGED from [com.android.support.constraint:constraint-layout:1.0.2] C:\Users\linta\.android\build-cache\68c5f2dc93d35d6c5284015b5f48d09cb310d42d\output\AndroidManifest.xml:5:5-7:41
	tools:overrideLibrary
		ADDED from [com.android.support:appcompat-v7:25.3.1] C:\Users\linta\.android\build-cache\5ff80e5742539bd11556df7b3326b6be133d8723\output\AndroidManifest.xml:23:9-75
	android:targetSdkVersion
		INJECTED from C:\Users\linta\Desktop\LearningApp\app\src\main\AndroidManifest.xml
		INJECTED from C:\Users\linta\Desktop\LearningApp\app\src\main\AndroidManifest.xml
	android:minSdkVersion
		INJECTED from C:\Users\linta\Desktop\LearningApp\app\src\main\AndroidManifest.xml
		INJECTED from C:\Users\linta\Desktop\LearningApp\app\src\main\AndroidManifest.xml
meta-data#android.support.VERSION
ADDED from [com.android.support:appcompat-v7:25.3.1] C:\Users\linta\.android\build-cache\5ff80e5742539bd11556df7b3326b6be133d8723\output\AndroidManifest.xml:25:5-27:34
MERGED from [com.android.support:support-v4:25.3.1] C:\Users\linta\.android\build-cache\f4a54445904694afa9fb5a3f2103a1b836cfb5d8\output\AndroidManifest.xml:25:5-27:34
MERGED from [com.android.support:support-fragment:25.3.1] C:\Users\linta\.android\build-cache\176c331ad7ad8349565692d5641f27fff2f593cf\output\AndroidManifest.xml:25:5-27:34
MERGED from [com.android.support:support-media-compat:25.3.1] C:\Users\linta\.android\build-cache\497ab39c52d7b3fadf439746b7fe4c89da1eca68\output\AndroidManifest.xml:25:5-27:34
MERGED from [com.android.support:support-core-ui:25.3.1] C:\Users\linta\.android\build-cache\df41c945af6b841322a91f7ba0bd205f0ea9aea6\output\AndroidManifest.xml:25:5-27:34
MERGED from [com.android.support:support-core-utils:25.3.1] C:\Users\linta\.android\build-cache\7411c689a39a940a66bbe48ddf0c7f9e4d4115ea\output\AndroidManifest.xml:25:5-27:34
MERGED from [com.android.support:animated-vector-drawable:25.3.1] C:\Users\linta\.android\build-cache\1ecafc8bf06df1e73c3856886038219895c1ad3e\output\AndroidManifest.xml:22:5-24:34
MERGED from [com.android.support:support-vector-drawable:25.3.1] C:\Users\linta\.android\build-cache\827d5572e86f11b4edcded3da09563d5709ab7f2\output\AndroidManifest.xml:22:5-24:34
MERGED from [com.android.support:support-compat:25.3.1] C:\Users\linta\.android\build-cache\c06005385f8e0629542623c64777c0c995dc7dc3\output\AndroidManifest.xml:25:5-27:34
	android:value
		ADDED from [com.android.support:appcompat-v7:25.3.1] C:\Users\linta\.android\build-cache\5ff80e5742539bd11556df7b3326b6be133d8723\output\AndroidManifest.xml:27:9-31
	android:name
		ADDED from [com.android.support:appcompat-v7:25.3.1] C:\Users\linta\.android\build-cache\5ff80e5742539bd11556df7b3326b6be133d8723\output\AndroidManifest.xml:26:9-47
